<?xml version="1.0" encoding="UTF-8" standalone="no"?><svg xmlns="http://www.w3.org/2000/svg" xmlns:xlink="http://www.w3.org/1999/xlink" contentScriptType="application/ecmascript" contentStyleType="text/css" height="1505px" preserveAspectRatio="none" style="width:604px;height:1505px;" version="1.1" viewBox="0 0 604 1505" width="604px" zoomAndPan="magnify"><defs><filter height="300%" id="fni6bw22ntu21" width="300%" x="-1" y="-1"><feGaussianBlur result="blurOut" stdDeviation="2.0"/><feColorMatrix in="blurOut" result="blurOut2" type="matrix" values="0 0 0 0 0 0 0 0 0 0 0 0 0 0 0 0 0 0 .4 0"/><feOffset dx="4.0" dy="4.0" in="blurOut2" result="blurOut3"/><feBlend in="SourceGraphic" in2="blurOut3" mode="normal"/></filter></defs><g><text fill="#000000" font-family="sans-serif" font-size="18" lengthAdjust="spacingAndGlyphs" textLength="269" x="173.5" y="16.708">Equator Dataflow Architecture</text><!--cluster Parser--><polygon fill="#FFFFFF" filter="url(#fni6bw22ntu21)" points="22,111.9531,80,111.9531,87,134.25,258,134.25,258,412.9531,22,412.9531,22,111.9531" style="stroke: #000000; stroke-width: 1.5;"/><line style="stroke: #000000; stroke-width: 1.5;" x1="22" x2="87" y1="134.25" y2="134.25"/><text fill="#000000" font-family="sans-serif" font-size="14" font-weight="bold" lengthAdjust="spacingAndGlyphs" textLength="52" x="26" y="126.9482">Parser</text><!--cluster Compiler--><polygon fill="#FFFFFF" filter="url(#fni6bw22ntu21)" points="344,111.9531,420,111.9531,427,134.25,582,134.25,582,1493.9531,344,1493.9531,344,111.9531" style="stroke: #000000; stroke-width: 1.5;"/><line style="stroke: #000000; stroke-width: 1.5;" x1="344" x2="427" y1="134.25" y2="134.25"/><text fill="#000000" font-family="sans-serif" font-size="14" font-weight="bold" lengthAdjust="spacingAndGlyphs" textLength="70" x="348" y="126.9482">Compiler</text><!--entity UngroupedParser--><rect fill="#FEFECE" filter="url(#fni6bw22ntu21)" height="36.2969" style="stroke: #A80036; stroke-width: 1.5;" width="204" x="38" y="146.9531"/><rect fill="#FEFECE" height="5" style="stroke: #A80036; stroke-width: 1.5;" width="10" x="33" y="151.9531"/><rect fill="#FEFECE" height="5" style="stroke: #A80036; stroke-width: 1.5;" width="10" x="33" y="173.25"/><text fill="#000000" font-family="sans-serif" font-size="14" lengthAdjust="spacingAndGlyphs" textLength="184" x="48" y="169.9482">Ungrouped Equator Parser</text><!--entity UngroupedAST--><ellipse cx="158" cy="271.9531" fill="#FEFECE" filter="url(#fni6bw22ntu21)" rx="8" ry="8" style="stroke: #A80036; stroke-width: 2.0;"/><text fill="#000000" font-family="sans-serif" font-size="14" lengthAdjust="spacingAndGlyphs" textLength="109" x="103.5" y="301.9482">Ungrouped AST</text><!--entity Grouper--><rect fill="#FEFECE" filter="url(#fni6bw22ntu21)" height="36.2969" style="stroke: #A80036; stroke-width: 1.5;" width="77" x="141.5" y="360.9531"/><rect fill="#FEFECE" height="5" style="stroke: #A80036; stroke-width: 1.5;" width="10" x="136.5" y="365.9531"/><rect fill="#FEFECE" height="5" style="stroke: #A80036; stroke-width: 1.5;" width="10" x="136.5" y="387.25"/><text fill="#000000" font-family="sans-serif" font-size="14" lengthAdjust="spacingAndGlyphs" textLength="57" x="151.5" y="383.9482">Grouper</text><!--entity ASTOptimizer--><rect fill="#FEFECE" filter="url(#fni6bw22ntu21)" height="36.2969" style="stroke: #A80036; stroke-width: 1.5;" width="117" x="382.5" y="146.9531"/><rect fill="#FEFECE" height="5" style="stroke: #A80036; stroke-width: 1.5;" width="10" x="377.5" y="151.9531"/><rect fill="#FEFECE" height="5" style="stroke: #A80036; stroke-width: 1.5;" width="10" x="377.5" y="173.25"/><text fill="#000000" font-family="sans-serif" font-size="14" lengthAdjust="spacingAndGlyphs" textLength="97" x="392.5" y="169.9482">AST Optimizer</text><!--entity AST2--><ellipse cx="452" cy="271.9531" fill="#FEFECE" filter="url(#fni6bw22ntu21)" rx="8" ry="8" style="stroke: #A80036; stroke-width: 2.0;"/><text fill="#000000" font-family="sans-serif" font-size="14" lengthAdjust="spacingAndGlyphs" textLength="27" x="438.5" y="301.9482">AST</text><!--entity NonPassableIRGenerator--><rect fill="#FEFECE" filter="url(#fni6bw22ntu21)" height="36.2969" style="stroke: #A80036; stroke-width: 1.5;" width="206" x="360" y="360.9531"/><rect fill="#FEFECE" height="5" style="stroke: #A80036; stroke-width: 1.5;" width="10" x="355" y="365.9531"/><rect fill="#FEFECE" height="5" style="stroke: #A80036; stroke-width: 1.5;" width="10" x="355" y="387.25"/><text fill="#000000" font-family="sans-serif" font-size="14" lengthAdjust="spacingAndGlyphs" textLength="186" x="370" y="383.9482">Non-passable IR Generator</text><!--entity NonPassableIR1--><ellipse cx="462" cy="485.9531" fill="#FEFECE" filter="url(#fni6bw22ntu21)" rx="8" ry="8" style="stroke: #A80036; stroke-width: 2.0;"/><text fill="#000000" font-family="sans-serif" font-size="14" lengthAdjust="spacingAndGlyphs" textLength="112" x="406" y="515.9482">Non-passable IR</text><!--entity IROptimizer--><rect fill="#FEFECE" filter="url(#fni6bw22ntu21)" height="36.2969" style="stroke: #A80036; stroke-width: 1.5;" width="103" x="410.5" y="574.9531"/><rect fill="#FEFECE" height="5" style="stroke: #A80036; stroke-width: 1.5;" width="10" x="405.5" y="579.9531"/><rect fill="#FEFECE" height="5" style="stroke: #A80036; stroke-width: 1.5;" width="10" x="405.5" y="601.25"/><text fill="#000000" font-family="sans-serif" font-size="14" lengthAdjust="spacingAndGlyphs" textLength="83" x="420.5" y="597.9482">IR Optimizer</text><!--entity NonPassableIR2--><ellipse cx="461" cy="699.9531" fill="#FEFECE" filter="url(#fni6bw22ntu21)" rx="8" ry="8" style="stroke: #A80036; stroke-width: 2.0;"/><text fill="#000000" font-family="sans-serif" font-size="14" lengthAdjust="spacingAndGlyphs" textLength="112" x="405" y="729.9482">Non-passable IR</text><!--entity NonPassableTypeBoxer--><rect fill="#FEFECE" filter="url(#fni6bw22ntu21)" height="36.2969" style="stroke: #A80036; stroke-width: 1.5;" width="197" x="362.5" y="788.9531"/><rect fill="#FEFECE" height="5" style="stroke: #A80036; stroke-width: 1.5;" width="10" x="357.5" y="793.9531"/><rect fill="#FEFECE" height="5" style="stroke: #A80036; stroke-width: 1.5;" width="10" x="357.5" y="815.25"/><text fill="#000000" font-family="sans-serif" font-size="14" lengthAdjust="spacingAndGlyphs" textLength="177" x="372.5" y="811.9482">Non-passable Type Boxer</text><!--entity PassableIR--><ellipse cx="461" cy="913.9531" fill="#FEFECE" filter="url(#fni6bw22ntu21)" rx="8" ry="8" style="stroke: #A80036; stroke-width: 2.0;"/><text fill="#000000" font-family="sans-serif" font-size="14" lengthAdjust="spacingAndGlyphs" textLength="79" x="421.5" y="943.9482">Passable IR</text><!--entity BytecodeGrapher--><rect fill="#FEFECE" filter="url(#fni6bw22ntu21)" height="36.2969" style="stroke: #A80036; stroke-width: 1.5;" width="146" x="388" y="1002.9531"/><rect fill="#FEFECE" height="5" style="stroke: #A80036; stroke-width: 1.5;" width="10" x="383" y="1007.9531"/><rect fill="#FEFECE" height="5" style="stroke: #A80036; stroke-width: 1.5;" width="10" x="383" y="1029.25"/><text fill="#000000" font-family="sans-serif" font-size="14" lengthAdjust="spacingAndGlyphs" textLength="126" x="398" y="1025.9482">Bytecode Grapher</text><!--entity BytecodeGraph1--><ellipse cx="461" cy="1127.9531" fill="#FEFECE" filter="url(#fni6bw22ntu21)" rx="8" ry="8" style="stroke: #A80036; stroke-width: 2.0;"/><text fill="#000000" font-family="sans-serif" font-size="14" lengthAdjust="spacingAndGlyphs" textLength="112" x="405" y="1157.9482">Bytecode Graph</text><!--entity BytecodeGraphOptimizer--><rect fill="#FEFECE" filter="url(#fni6bw22ntu21)" height="36.2969" style="stroke: #A80036; stroke-width: 1.5;" width="202" x="360" y="1216.9531"/><rect fill="#FEFECE" height="5" style="stroke: #A80036; stroke-width: 1.5;" width="10" x="355" y="1221.9531"/><rect fill="#FEFECE" height="5" style="stroke: #A80036; stroke-width: 1.5;" width="10" x="355" y="1243.25"/><text fill="#000000" font-family="sans-serif" font-size="14" lengthAdjust="spacingAndGlyphs" textLength="182" x="370" y="1239.9482">Bytecode Graph Optimizer</text><!--entity BytecodeGraph2--><ellipse cx="455" cy="1341.9531" fill="#FEFECE" filter="url(#fni6bw22ntu21)" rx="8" ry="8" style="stroke: #A80036; stroke-width: 2.0;"/><text fill="#000000" font-family="sans-serif" font-size="14" lengthAdjust="spacingAndGlyphs" textLength="112" x="399" y="1371.9482">Bytecode Graph</text><!--entity BytecodeGenerator--><rect fill="#FEFECE" filter="url(#fni6bw22ntu21)" height="36.2969" style="stroke: #A80036; stroke-width: 1.5;" width="151" x="368.5" y="1441.9531"/><rect fill="#FEFECE" height="5" style="stroke: #A80036; stroke-width: 1.5;" width="10" x="363.5" y="1446.9531"/><rect fill="#FEFECE" height="5" style="stroke: #A80036; stroke-width: 1.5;" width="10" x="363.5" y="1468.25"/><text fill="#000000" font-family="sans-serif" font-size="14" lengthAdjust="spacingAndGlyphs" textLength="131" x="378.5" y="1464.9482">Bytcode Generator</text><!--entity JVM--><polygon fill="#FFFFFF" filter="url(#fni6bw22ntu21)" points="139,1328.9531,149,1318.9531,203,1318.9531,203,1355.25,193,1365.25,139,1365.25,139,1328.9531" style="stroke: #000000; stroke-width: 1.5;"/><line style="stroke: #000000; stroke-width: 1.5;" x1="193" x2="202" y1="1328.9531" y2="1319.9531"/><line style="stroke: #000000; stroke-width: 1.5;" x1="139" x2="193" y1="1328.9531" y2="1328.9531"/><line style="stroke: #000000; stroke-width: 1.5;" x1="193" x2="193" y1="1328.9531" y2="1365.25"/><text fill="#000000" font-family="sans-serif" font-size="14" lengthAdjust="spacingAndGlyphs" textLength="24" x="154" y="1351.9482">JVM</text><!--entity Source--><ellipse cx="140" cy="57.9531" fill="#FEFECE" filter="url(#fni6bw22ntu21)" rx="8" ry="8" style="stroke: #A80036; stroke-width: 2.0;"/><text fill="#000000" font-family="sans-serif" font-size="14" lengthAdjust="spacingAndGlyphs" textLength="90" x="95" y="87.9482">Source Code</text><!--entity AST1--><ellipse cx="301" cy="271.9531" fill="#FEFECE" filter="url(#fni6bw22ntu21)" rx="8" ry="8" style="stroke: #A80036; stroke-width: 2.0;"/><text fill="#000000" font-family="sans-serif" font-size="14" lengthAdjust="spacingAndGlyphs" textLength="27" x="287.5" y="301.9482">AST</text><!--entity EquatorRuntimeLibrary--><ellipse cx="238" cy="1459.9531" fill="#FEFECE" filter="url(#fni6bw22ntu21)" rx="8" ry="8" style="stroke: #A80036; stroke-width: 2.0;"/><text fill="#000000" font-family="sans-serif" font-size="14" lengthAdjust="spacingAndGlyphs" textLength="164" x="156" y="1489.9482">Equator Runtime Library</text><!--entity Bytecode--><ellipse cx="104" cy="1459.9531" fill="#FEFECE" filter="url(#fni6bw22ntu21)" rx="8" ry="8" style="stroke: #A80036; stroke-width: 2.0;"/><text fill="#000000" font-family="sans-serif" font-size="14" lengthAdjust="spacingAndGlyphs" textLength="66" x="71" y="1489.9482">Bytecode</text><!--link Source to UngroupedParser--><path d="M140,67.1931 C140,83.1031 140,118.5431 140,141.8231 " fill="none" id="Source-UngroupedParser" style="stroke: #A80036; stroke-width: 1.0; stroke-dasharray: 7.0,7.0;"/><polygon fill="#A80036" points="140,146.8831,144,137.8831,140,141.8831,136,137.8831,140,146.8831" style="stroke: #A80036; stroke-width: 1.0;"/><!--link UngroupedParser to UngroupedAST--><path d="M142.972,183.2931 C146.538,204.0931 152.439,238.5131 155.684,257.4431 " fill="none" id="UngroupedParser-UngroupedAST" style="stroke: #A80036; stroke-width: 1.0; stroke-dasharray: 7.0,7.0;"/><polygon fill="#A80036" points="156.6,262.7831,159.0257,253.2376,155.7572,257.8547,151.1401,254.5862,156.6,262.7831" style="stroke: #A80036; stroke-width: 1.0;"/><!--link UngroupedAST to Grouper--><path d="M159.726,281.1931 C163.06,297.1031 170.485,332.5431 175.364,355.8231 " fill="none" id="UngroupedAST-Grouper" style="stroke: #A80036; stroke-width: 1.0; stroke-dasharray: 7.0,7.0;"/><polygon fill="#A80036" points="176.424,360.8831,178.4869,351.2527,175.3954,355.9901,170.6581,352.8985,176.424,360.8831" style="stroke: #A80036; stroke-width: 1.0;"/><!--link AST1 to Grouper--><path d="M287.957,284.2731 C266.769,302.6531 224.741,339.1231 199.835,360.7431 " fill="none" id="AST1-Grouper" style="stroke: #A80036; stroke-width: 1.0; stroke-dasharray: 7.0,7.0;"/><polygon fill="#A80036" points="291.905,280.8431,282.4878,283.727,288.1308,284.1227,287.7351,289.7657,291.905,280.8431" style="stroke: #A80036; stroke-width: 1.0;"/><!--link ASTOptimizer to AST1--><path d="M414.034,186.1731 C382.238,210.0231 331.086,248.3931 310.265,264.0031 " fill="none" id="ASTOptimizer-AST1" style="stroke: #A80036; stroke-width: 1.0; stroke-dasharray: 7.0,7.0;"/><polygon fill="#A80036" points="418.195,183.0531,408.595,185.2531,414.195,186.0531,413.395,191.6531,418.195,183.0531" style="stroke: #A80036; stroke-width: 1.0;"/><!--link ASTOptimizer to AST2--><path d="M442.816,183.2931 C444.995,204.0931 448.602,238.5131 450.585,257.4431 " fill="none" id="ASTOptimizer-AST2" style="stroke: #A80036; stroke-width: 1.0; stroke-dasharray: 7.0,7.0;"/><polygon fill="#A80036" points="451.145,262.7831,454.198,253.4194,450.6307,257.8097,446.2404,254.2424,451.145,262.7831" style="stroke: #A80036; stroke-width: 1.0;"/><!--link AST2 to NonPassableIRGenerator--><path d="M452.863,281.1931 C454.53,297.1031 458.242,332.5431 460.682,355.8231 " fill="none" id="AST2-NonPassableIRGenerator" style="stroke: #A80036; stroke-width: 1.0; stroke-dasharray: 7.0,7.0;"/><polygon fill="#A80036" points="461.212,360.8831,464.265,351.5194,460.6977,355.9097,456.3074,352.3424,461.212,360.8831" style="stroke: #A80036; stroke-width: 1.0;"/><!--link NonPassableIRGenerator to NonPassableIR1--><path d="M462.835,397.2931 C462.637,418.0931 462.309,452.5131 462.129,471.4431 " fill="none" id="NonPassableIRGenerator-NonPassableIR1" style="stroke: #A80036; stroke-width: 1.0; stroke-dasharray: 7.0,7.0;"/><polygon fill="#A80036" points="462.078,476.7831,466.155,467.8178,462.1209,471.7833,458.1553,467.7492,462.078,476.7831" style="stroke: #A80036; stroke-width: 1.0;"/><!--link NonPassableIR1 to IROptimizer--><path d="M462,495.1931 C462,511.1031 462,546.5391 462,569.8251 " fill="none" id="NonPassableIR1-IROptimizer" style="stroke: #A80036; stroke-width: 1.0; stroke-dasharray: 7.0,7.0;"/><polygon fill="#A80036" points="462,574.8861,466,565.8861,462,569.8861,458,565.8861,462,574.8861" style="stroke: #A80036; stroke-width: 1.0;"/><!--link IROptimizer to NonPassableIR2--><path d="M461.835,611.2921 C461.637,632.0901 461.309,666.5131 461.129,685.4431 " fill="none" id="IROptimizer-NonPassableIR2" style="stroke: #A80036; stroke-width: 1.0; stroke-dasharray: 7.0,7.0;"/><polygon fill="#A80036" points="461.078,690.7881,465.1627,681.8262,461.1252,685.7883,457.1631,681.7508,461.078,690.7881" style="stroke: #A80036; stroke-width: 1.0;"/><!--link NonPassableIR2 to NonPassableTypeBoxer--><path d="M461,709.1921 C461,725.1031 461,760.5391 461,783.8251 " fill="none" id="NonPassableIR2-NonPassableTypeBoxer" style="stroke: #A80036; stroke-width: 1.0; stroke-dasharray: 7.0,7.0;"/><polygon fill="#A80036" points="461,788.8861,465,779.8861,461,783.8861,457,779.8861,461,788.8861" style="stroke: #A80036; stroke-width: 1.0;"/><!--link NonPassableTypeBoxer to PassableIR--><path d="M461,825.2921 C461,846.0901 461,880.5131 461,899.4431 " fill="none" id="NonPassableTypeBoxer-PassableIR" style="stroke: #A80036; stroke-width: 1.0; stroke-dasharray: 7.0,7.0;"/><polygon fill="#A80036" points="461,904.7881,465,895.7881,461,899.7881,457,895.7881,461,904.7881" style="stroke: #A80036; stroke-width: 1.0;"/><!--link PassableIR to BytecodeGrapher--><path d="M461,923.1921 C461,939.1031 461,974.5391 461,997.8251 " fill="none" id="PassableIR-BytecodeGrapher" style="stroke: #A80036; stroke-width: 1.0; stroke-dasharray: 7.0,7.0;"/><polygon fill="#A80036" points="461,1002.8861,465,993.8861,461,997.8861,457,993.8861,461,1002.8861" style="stroke: #A80036; stroke-width: 1.0;"/><!--link BytecodeGrapher to BytecodeGraph1--><path d="M461,1039.2921 C461,1060.0901 461,1094.5131 461,1113.4431 " fill="none" id="BytecodeGrapher-BytecodeGraph1" style="stroke: #A80036; stroke-width: 1.0; stroke-dasharray: 7.0,7.0;"/><polygon fill="#A80036" points="461,1118.7881,465,1109.7881,461,1113.7881,457,1109.7881,461,1118.7881" style="stroke: #A80036; stroke-width: 1.0;"/><!--link BytecodeGraph1 to BytecodeGraphOptimizer--><path d="M461,1137.1921 C461,1153.1031 461,1188.5391 461,1211.8251 " fill="none" id="BytecodeGraph1-BytecodeGraphOptimizer" style="stroke: #A80036; stroke-width: 1.0; stroke-dasharray: 7.0,7.0;"/><polygon fill="#A80036" points="461,1216.8861,465,1207.8861,461,1211.8861,457,1207.8861,461,1216.8861" style="stroke: #A80036; stroke-width: 1.0;"/><!--link BytecodeGraphOptimizer to BytecodeGraph2--><path d="M460.009,1253.2921 C458.821,1274.0901 456.854,1308.5131 455.772,1327.4431 " fill="none" id="BytecodeGraphOptimizer-BytecodeGraph2" style="stroke: #A80036; stroke-width: 1.0; stroke-dasharray: 7.0,7.0;"/><polygon fill="#A80036" points="455.467,1332.7881,459.9748,1324.0314,455.7527,1327.7963,451.9879,1323.5742,455.467,1332.7881" style="stroke: #A80036; stroke-width: 1.0;"/><!--link BytecodeGraph2 to BytecodeGenerator--><path d="M454.209,1351.2951 C452.535,1368.9491 448.586,1410.5952 446.119,1436.6078 " fill="none" id="BytecodeGraph2-BytecodeGenerator" style="stroke: #A80036; stroke-width: 1.0; stroke-dasharray: 7.0,7.0;"/><polygon fill="#A80036" points="445.616,1441.907,450.4478,1433.3249,446.0881,1436.9294,442.4836,1432.5696,445.616,1441.907" style="stroke: #A80036; stroke-width: 1.0;"/><!--link Bytecode to BytecodeGenerator--><path d="M109.833,1445.7151 C116.552,1431.4305 129.087,1410.2538 147.5,1400.9531 C218.907,1364.8831 249.688,1382.3731 327.5,1400.9531 C360.357,1408.7991 394.432,1427.4984 417.176,1441.7596 " fill="none" id="Bytecode-BytecodeGenerator" style="stroke: #A80036; stroke-width: 1.0; stroke-dasharray: 7.0,7.0;"/><polygon fill="#A80036" points="107.621,1450.6313,114.9627,1444.0664,109.6734,1446.072,107.6678,1440.7826,107.621,1450.6313" style="stroke: #A80036; stroke-width: 1.0;"/><!--link JVM to Bytecode--><path d="M155.682,1369.4751 C140.504,1395.7531 118.183,1434.3982 108.622,1450.9506 " fill="none" id="JVM-Bytecode" style="stroke: #A80036; stroke-width: 1.0; stroke-dasharray: 7.0,7.0;"/><polygon fill="#A80036" points="158.24,1365.0451,150.2744,1370.8373,155.7389,1369.3746,157.2016,1374.8391,158.24,1365.0451" style="stroke: #A80036; stroke-width: 1.0;"/><!--link JVM to EquatorRuntimeLibrary--><path d="M186.318,1369.4751 C201.496,1395.7531 223.817,1434.3982 233.378,1450.9506 " fill="none" id="JVM-EquatorRuntimeLibrary" style="stroke: #A80036; stroke-width: 1.0; stroke-dasharray: 7.0,7.0;"/><polygon fill="#A80036" points="183.76,1365.0451,184.7984,1374.8391,186.2611,1369.3746,191.7256,1370.8373,183.76,1365.0451" style="stroke: #A80036; stroke-width: 1.0;"/><!--
@startuml
title Equator Dataflow Architecture

interface "Source Code" as Source

package Parser {
    [Ungrouped Equator Parser] as UngroupedParser
    interface "Ungrouped AST" as UngroupedAST
    [Grouper]
}

interface AST as AST1

package Compiler {
    [AST Optimizer] as ASTOptimizer
    interface AST as AST2
    [Non-passable IR Generator] as NonPassableIRGenerator
    interface "Non-passable IR" as NonPassableIR1
    [IR Optimizer] as IROptimizer
    interface "Non-passable IR" as NonPassableIR2
    [Non-passable Type Boxer] as NonPassableTypeBoxer
    interface "Passable IR" as PassableIR
    [Bytecode Grapher] as BytecodeGrapher
    interface "Bytecode Graph" as BytecodeGraph1
    [Bytecode Graph Optimizer] as BytecodeGraphOptimizer
    interface "Bytecode Graph" as BytecodeGraph2
    [Bytcode Generator] as BytecodeGenerator
}

interface "Equator Runtime Library" as EquatorRuntimeLibrary
interface "Bytecode" as Bytecode

node JVM {

}

Source ..> UngroupedParser
UngroupedParser ..> UngroupedAST
UngroupedAST ..> Grouper
Grouper .up.> AST1
AST1 .up.> ASTOptimizer
ASTOptimizer ..> AST2
AST2 ..>  NonPassableIRGenerator
NonPassableIRGenerator ..> NonPassableIR1
NonPassableIR1 ..> IROptimizer
IROptimizer ..> NonPassableIR2
NonPassableIR2 ..> NonPassableTypeBoxer
NonPassableTypeBoxer ..> PassableIR
PassableIR ..> BytecodeGrapher
BytecodeGrapher ..> BytecodeGraph1
BytecodeGraph1 ..> BytecodeGraphOptimizer
BytecodeGraphOptimizer ..> BytecodeGraph2
BytecodeGraph2 ..> BytecodeGenerator
BytecodeGenerator .left.> Bytecode
Bytecode .up.> JVM
EquatorRuntimeLibrary .up.> JVM
@enduml

PlantUML version 1.2018.09beta4(Unknown compile time)
(GPL source distribution)
Java Runtime: Java(TM) SE Runtime Environment
JVM: Java HotSpot(TM) 64-Bit Server VM
Java Version: 1.7.0_25-b15
Operating System: Linux
Default Encoding: UTF-8
Language: en
Country: US
--></g></svg>